Tidy Text Analysis
…
Punctuation has been stripped

Words have been converted to lower-case

Step 2: filtering out ‘stop words’

Now that the data is in one-word-per-row format, we can manipulate it with tidy tools like dplyr.

Often in text analysis, we will want to remove stop words; stop words are words that are not useful for an analysis, typically extremely common words such as “the”, “of”, “to”, and so forth in English.

The tidytext package provides a stop_words data set that looks like this…

stop_words

## # A tibble: 1,149 x 2
##    word        lexicon
##    <chr>       <chr>  
##  1 a           SMART  
##  2 a's         SMART  
##  3 able        SMART  
##  4 about       SMART  
##  5 above       SMART  
##  6 according   SMART  
##  7 accordingly SMART  
##  8 across      SMART  
##  9 actually    SMART  
## 10 after       SMART  
## # ... with 1,139 more rows
…
hp_text %>% 
  unnest_tokens(output = word, input = text) %>% 
  ___(___, by = "word")

hp_text %>% 
  unnest_tokens(output = word, input = text) %>% 
  anti_join(stop_words, by = "word")

Step 3: Word Counts

We now have our tokenized data frame with all stop-words removed saved as hp_tidy as below. We’re now ready to conduct some analysis on the text!

hp_tidy

## # A tibble: 409,338 x 3
##    book                    chapter word     
##    <fct>                     <int> <chr>    
##  1 The Philosopher's Stone       1 boy      
##  2 The Philosopher's Stone       1 lived    
##  3 The Philosopher's Stone       1 dursley  
##  4 The Philosopher's Stone       1 privet   
##  5 The Philosopher's Stone       1 drive    
##  6 The Philosopher's Stone       1 proud    
##  7 The Philosopher's Stone       1 perfectly
##  8 The Philosopher's Stone       1 normal   
##  9 The Philosopher's Stone       1 people   
## 10 The Philosopher's Stone       1 expect   
## # ... with 409,328 more rows
…
hp_tidy %>% 
  filter(!word %in% hp_characters) %>% 
  count(word, sort = TRUE)

Step 4: Sentiment Analysis

Sentiment Lexicons

The tidytext package comes with 3 built-in sentiment lexicons: AFINN, Bing and NRC.

How does each lexicon differ in their measurement of sentiment?

get_sentiments("afinn")

## # A tibble: 2,476 x 2
##    word       score
##    <chr>      <int>
##  1 abandon       -2
##  2 abandoned     -2
##  3 abandons      -2
##  4 abducted      -2
##  5 abduction     -2
##  6 abductions    -2
##  7 abhor         -3
##  8 abhorred      -3
##  9 abhorrent     -3
## 10 abhors        -3
## # ... with 2,466 more rows

get_sentiments("bing")

## # A tibble: 6,788 x 2
##    word        sentiment
##    <chr>       <chr>    
##  1 2-faced     negative 
##  2 2-faces     negative 
##  3 a+          positive 
##  4 abnormal    negative 
##  5 abolish     negative 
##  6 abominable  negative 
##  7 abominably  negative 
##  8 abominate   negative 
##  9 abomination negative 
## 10 abort       negative 
## # ... with 6,778 more rows

get_sentiments("nrc")

## # A tibble: 13,901 x 2
##    word        sentiment
##    <chr>       <chr>    
##  1 abacus      trust    
##  2 abandon     fear     
##  3 abandon     negative 
##  4 abandon     sadness  
##  5 abandoned   anger    
##  6 abandoned   fear     
##  7 abandoned   negative 
##  8 abandoned   sadness  
##  9 abandonment anger    
## 10 abandonment fear     
## # ... with 13,891 more rows
…
